programming efficiency in R
…
Time spent processing your data at the beginning of projects can save time in the long run. We will walk through various ways to process data efficiently, both in terms of programming and algorithmic. For example, packages in tidyverse provide ways to efficiently print results and work with data. Specificaly, the dplyr package provides a sufficiently quick yet easy way to process data, and the raw speed of data.table is useful for wrangling large data sets. Also, the essential %>% (pronounced pipe) operator can clarify complex wrangling processes.

Tidyverse

tibble()

The tidyverse version of a data.frame object is a tbl_df from the tibble package. It is a class of data frame that makes printing results, subsetting data, and factoring more accessible.

In printing a tbl_df, we can see the class of each variable; we do not when printing a data.frame.

tbl <- tibble(num = 1:100, char = rep(c("x", "y"), each = 50))
tbl

# A tibble: 100 x 2
     num char 
   <int> <chr>
 1     1 x    
 2     2 x    
 3     3 x    
 4     4 x    
 5     5 x    
 6     6 x    
 7     7 x    
 8     8 x    
 9     9 x    
10    10 x    
# ... with 90 more rows
…
df_long <- df %>% 
  pivot_longer(
    phd:high_school, #variables to gather  
    names_to = "highest_edu", #name of gathered column 
    values_to = "edu" #name of values column 
  )
df_long

# A tibble: 4,000 x 4
   score performance highest_edu   edu
   <dbl>       <dbl> <chr>       <dbl>
 1  4.66        4.39 phd             1
 2  4.66        4.39 masters         0
 3  4.66        4.39 college         0
 4  4.66        4.39 high_school     0
 5  4.75        1.25 phd             1
 6  4.75        1.25 masters         1
 7  4.75        1.25 college         0
 8  4.75        1.25 high_school     0
 9  2.14        4.28 phd             0
10  2.14        4.28 masters         0
# ... with 3,990 more rows
…
              test elapsed
2  rstatix_groupby   10.08
1 psych_describeBy   34.27

Although overall summary statistics using the psych package is faster than using rstatix, we can see that when obtaining summary statistics after the data are grouped, the opposite is true.

bfi_summary_stats_group <- bfi_group %>%
    group_by(gender, education) %>%
    get_summary_stats()
bfi_summary_stats_group

# A tibble: 250 x 15
   gender education variable     n    min   max median    q1    q3   iqr   mad
    <dbl>     <dbl> <chr>    <dbl>  <dbl> <dbl>  <dbl> <dbl> <dbl> <dbl> <dbl>
 1      1         1 A1       29076 -3.41   7.64   2.37  1.43  3.31  1.88  1.39
 2      1         1 A2       29076 -0.478  9.32   4.84  4.05  5.62  1.58  1.17
 3      1         1 A3       29076 -0.307  9.88   4.64  3.76  5.51  1.74  1.29
 4      1         1 A4       29076 -0.807 11.4    4.77  3.78  5.74  1.96  1.46
 5      1         1 A5       29076 -1.29   9      4.59  3.74  5.44  1.70  1.26
 6      1         1 C1       29076 -0.106 10.4    4.57  3.76  5.39  1.63  1.21
 7      1         1 C2       29076 -0.98   9.58   4.39  3.49  5.27  1.78  1.32
 8      1         1 C3       29076 -1.17   9.24   4.34  3.47  5.18  1.71  1.27
 9      1         1 C4       29076 -3.08   8.07   2.51  1.59  3.42  1.83  1.36
10      1         1 C5       29076 -3.30  10.2    3.27  2.16  4.36  2.20  1.64
# ... with 240 more rows, and 4 more variables: mean <dbl>, sd <dbl>, se <dbl>,
#   ci <dbl>
…
